…
But perhaps you don’t trust my algebra.6 To assuage your fears, let’s take this to the data! The following example is based on Peisakhin & Rozenas (2018) - Electoral Effects of Biased Media: Russian Television in Ukraine. I’ve adapted it from Llaudet and Imai’s fantastic book Data Analysis for Social Science, the perfect holiday or birthday gift for the budding social scientist in your life.

Here’s a bit of background. In the lead-up to Ukraine’s 2014 parliamentary election, Russian state-controlled TV mounted a fierce media campaign against the Ukrainian government. Ukrainians who lived near the border with Russia could potentially receive Russian TV signals. Did receiving these signals cause them to support pro-Russia parties in the election? To answer this question, we’ll use a dataset called precincts that contains aggregate election results in precincts close to the Russian border:

library(tidyverse)
precincts <- read_csv('https://ditraglia.com/data/UA_precincts.csv')

Each row of precincts is an electoral precinct in Ukraine that is near the Russian border. The columns pro_russion and prior_pro_russian give the vote share (in percentage points) of pro-Russian parties in the 2014 and 2012 Ukrainian elections, respectively. Our outcome of interest will be the change in pro-Russian vote share between the two elections, so we first need to construct this:

precincts <- precincts |>
  mutate(change = pro_russian - prior_pro_russian) |> 
  select(-pro_russian, -prior_pro_russian)
precincts

## # A tibble: 3,589 × 3
##    russian_tv within_25km change
##         <dbl>       <dbl>  <dbl>
##  1          0           1  -22.4
##  2          0           0  -34.5
##  3          1           1  -18.8
##  4          0           1  -12.2
##  5          0           0  -27.7
##  6          1           0  -44.2
##  7          0           0  -34.5
##  8          0           0  -29.5
##  9          0           0  -24.1
## 10          0           0  -25.4
## # ℹ 3,579 more rows
…
